module gitlab.com/emaele/kind-ol

go 1.13

require (
	github.com/PuerkitoBio/goquery v1.5.0
	github.com/aws/aws-lambda-go v1.13.2
	github.com/go-telegram-bot-api/telegram-bot-api v4.6.4+incompatible
	github.com/technoweenie/multipartstreamer v1.0.1 // indirect
	github.com/zpnk/go-bitly v0.0.0-20170609220507-2da97f724d1d
)
